{
    "prepare_queue": {
        "installed": [],
        "uninstalled": []
    },
    "config_munge": {
        "files": {}
    },
    "installed_plugins": {
        "cordova-plugin-background-mode": {
            "PACKAGE_NAME": "com.ionicframework.akji940741"
        },
        "cordova-plugin-console": {
            "PACKAGE_NAME": "com.ionicframework.akji940741"
        },
        "cordova-plugin-contacts": {
            "PACKAGE_NAME": "com.ionicframework.akji940741"
        },
        "cordova-plugin-device": {
            "PACKAGE_NAME": "com.ionicframework.akji940741"
        },
        "cordova-plugin-fcm": {
            "PACKAGE_NAME": "com.ionicframework.akji940741"
        },
        "cordova-plugin-fcm-config": {
            "PACKAGE_NAME": "com.ionicframework.akji940741"
        },
        "cordova-plugin-geolocation": {
            "PACKAGE_NAME": "com.ionicframework.akji940741"
        },
        "cordova-plugin-http": {
            "PACKAGE_NAME": "com.ionicframework.akji940741"
        },
        "cordova-plugin-inappbrowser": {
            "PACKAGE_NAME": "com.ionicframework.akji940741"
        },
        "cordova-plugin-nativestorage": {
            "PACKAGE_NAME": "com.ionicframework.akji940741"
        },
        "cordova-plugin-network-information": {
            "PACKAGE_NAME": "com.ionicframework.akji940741"
        },
        "cordova-plugin-secure-storage": {
            "PACKAGE_NAME": "com.ionicframework.akji940741"
        },
        "cordova-plugin-sim": {
            "PACKAGE_NAME": "com.ionicframework.akji940741"
        },
        "cordova-plugin-splashscreen": {
            "PACKAGE_NAME": "com.ionicframework.akji940741"
        },
        "cordova-plugin-statusbar": {
            "PACKAGE_NAME": "com.ionicframework.akji940741"
        },
        "cordova-plugin-whitelist": {
            "PACKAGE_NAME": "com.ionicframework.akji940741"
        },
        "cordova-plugin-x-socialsharing": {
            "PACKAGE_NAME": "com.ionicframework.akji940741"
        },
        "cordova-sms-plugin": {
            "PACKAGE_NAME": "com.ionicframework.akji940741"
        },
        "cordova-sqlite-storage": {
            "PACKAGE_NAME": "com.ionicframework.akji940741"
        },
        "de.appplant.cordova.plugin.local-notification": {
            "PACKAGE_NAME": "com.ionicframework.akji940741"
        },
        "ionic-plugin-keyboard": {
            "PACKAGE_NAME": "com.ionicframework.akji940741"
        },
        "com.phonegap.plugins.nativesettingsopener": {
            "PACKAGE_NAME": "com.ionicframework.akji940741"
        }
    },
    "dependent_plugins": {
        "cordova-plugin-app-event": {
            "PACKAGE_NAME": "com.ionicframework.akji940741"
        },
        "cordova-plugin-compat": {
            "PACKAGE_NAME": "com.ionicframework.akji940741"
        },
        "cordova-plugin-file": {
            "PACKAGE_NAME": "com.ionicframework.akji940741"
        }
    }
}